{
  "zoomLevelsFile": "../zoomlevels/default.json",
  "rules": [
    {
      "condition": "deposition >= 0 && deposition < 700",
      "fillColor": "FFFFD4",
      "strokeColor": "FFFFFF"
    },
    {
      "condition": "deposition >= 700 && deposition < 980",
      "fillColor": "FEE391",
      "strokeColor": "FFFFFF"
    },
    {
      "condition": "deposition >= 980 && deposition < 1260",
      "fillColor": "FEC44F",
      "strokeColor": "FFFFFF"
    },
    {
      "condition": "deposition >= 1260 && deposition < 1540",
      "fillColor": "FE9929",
      "strokeColor": "FFFFFF"
    },
    {
      "condition": "deposition >= 1540 && deposition < 1960",
      "fillColor": "EC7014",
      "strokeColor": "FFFFFF"
    },
    {
      "condition": "deposition >= 1960 && deposition < 2240",
      "fillColor": "CC4C02",
      "strokeColor": "FFFFFF"
    },
    {
      "condition": "deposition >= 2240",
      "fillColor": "8C2D04",
      "strokeColor": "FFFFFF"
    }
  ]
}
